{
  "_embedded": {
    "events": [
      {
        "name": "New York Yankees vs. Houston Astros",
        "type": "event",
        "id": "G5vVZbowlKfy0",
        "test": false,
        "url": "https://www.ticketmaster.com/new-york-yankees-vs-houston-astros-bronx-new-york-08-10-2025/event/1D00611CAB4D4E64",
        "locale": "en-us",
        "images": [
          {
            "ratio": "3_2",
            "url": "https://s1.ticketm.net/dam/a/7e0/479ac7e7-15fb-44ba-8708-fc1bf2d037e0_RETINA_PORTRAIT_3_2.jpg",
            "width": 640,
            "height": 427,
            "fallback": false,
            "attribution": "Prior image update was not to spec and stopped appearing in branded content when GADP was activated, resized and reuploaded."
          },
          {
            "ratio": "16_9",
            "url": "https://s1.ticketm.net/dam/a/7e0/479ac7e7-15fb-44ba-8708-fc1bf2d037e0_EVENT_DETAIL_PAGE_16_9.jpg",
            "width": 205,
            "height": 115,
            "fallback": false,
            "attribution": "Prior image update was not to spec and stopped appearing in branded content when GADP was activated, resized and reuploaded."
          },
          {
            "ratio": "16_9",
            "url": "https://s1.ticketm.net/dam/a/7e0/479ac7e7-15fb-44ba-8708-fc1bf2d037e0_RECOMENDATION_16_9.jpg",
            "width": 100,
            "height": 56,
            "fallback": false,
            "attribution": "Prior image update was not to spec and stopped appearing in branded content when GADP was activated, resized and reuploaded."
          },
          {
            "ratio": "16_9",
            "url": "https://s1.ticketm.net/dam/a/7e0/479ac7e7-15fb-44ba-8708-fc1bf2d037e0_RETINA_LANDSCAPE_16_9.jpg",
            "width": 1136,
            "height": 639,
            "fallback": false,
            "attribution": "Prior image update was not to spec and stopped appearing in branded content when GADP was activated, resized and reuploaded."
          },
          {
            "ratio": "3_2",
            "url": "https://s1.ticketm.net/dam/a/7e0/479ac7e7-15fb-44ba-8708-fc1bf2d037e0_ARTIST_PAGE_3_2.jpg",
            "width": 305,
            "height": 203,
            "fallback": false,
            "attribution": "Prior image update was not to spec and stopped appearing in branded content when GADP was activated, resized and reuploaded."
          },
          {
            "ratio": "16_9",
            "url": "https://s1.ticketm.net/dam/a/7e0/479ac7e7-15fb-44ba-8708-fc1bf2d037e0_RETINA_PORTRAIT_16_9.jpg",
            "width": 640,
            "height": 360,
            "fallback": false,
            "attribution": "Prior image update was not to spec and stopped appearing in branded content when GADP was activated, resized and reuploaded."
          },
          {
            "ratio": "4_3",
            "url": "https://s1.ticketm.net/dam/a/7e0/479ac7e7-15fb-44ba-8708-fc1bf2d037e0_CUSTOM.jpg",
            "width": 305,
            "height": 225,
            "fallback": false,
            "attribution": "Prior image update was not to spec and stopped appearing in branded content when GADP was activated, resized and reuploaded."
          },
          {
            "ratio": "16_9",
            "url": "https://s1.ticketm.net/dam/a/7e0/479ac7e7-15fb-44ba-8708-fc1bf2d037e0_TABLET_LANDSCAPE_LARGE_16_9.jpg",
            "width": 2048,
            "height": 1152,
            "fallback": false,
            "attribution": "Prior image update was not to spec and stopped appearing in branded content when GADP was activated, resized and reuploaded."
          },
          {
            "ratio": "16_9",
            "url": "https://s1.ticketm.net/dam/a/7e0/479ac7e7-15fb-44ba-8708-fc1bf2d037e0_SOURCE",
            "width": 2426,
            "height": 1365,
            "fallback": false,
            "attribution": "Prior image update was not to spec and stopped appearing in branded content when GADP was activated, resized and reuploaded."
          },
          {
            "ratio": "16_9",
            "url": "https://s1.ticketm.net/dam/a/7e0/479ac7e7-15fb-44ba-8708-fc1bf2d037e0_TABLET_LANDSCAPE_16_9.jpg",
            "width": 1024,
            "height": 576,
            "fallback": false,
            "attribution": "Prior image update was not to spec and stopped appearing in branded content when GADP was activated, resized and reuploaded."
          },
          {
            "ratio": "3_2",
            "url": "https://s1.ticketm.net/dam/a/7e0/479ac7e7-15fb-44ba-8708-fc1bf2d037e0_TABLET_LANDSCAPE_3_2.jpg",
            "width": 1024,
            "height": 683,
            "fallback": false,
            "attribution": "Prior image update was not to spec and stopped appearing in branded content when GADP was activated, resized and reuploaded."
          }
        ],
        "sales": {
          "public": {
            "startDateTime": "2024-09-13T14:00:00Z",
            "startTBD": false,
            "startTBA": false,
            "endDateTime": "2025-08-10T18:35:00Z"
          },
          "presales": [
            {
              "startDateTime": "2024-09-12T14:00:00Z",
              "endDateTime": "2024-09-12T16:00:00Z",
              "name": "NYY Presale 1"
            },
            {
              "startDateTime": "2024-09-12T15:00:00Z",
              "endDateTime": "2024-09-12T16:00:00Z",
              "name": "NYY Presale 2"
            },
            {
              "startDateTime": "2024-09-12T16:00:00Z",
              "endDateTime": "2024-09-13T02:00:00Z",
              "name": "Mastercard Cardholders"
            }
          ]
        },
        "dates": {
          "start": {
            "localDate": "2025-08-10",
            "localTime": "13:35:00",
            "dateTime": "2025-08-10T17:35:00Z",
            "dateTBD": false,
            "dateTBA": false,
            "timeTBA": false,
            "noSpecificTime": false
          },
          "timezone": "America/New_York",
          "status": {
            "code": "onsale"
          },
          "spanMultipleDays": false
        },
        "classifications": [
          {
            "primary": true,
            "segment": {
              "id": "KZFzniwnSyZfZ7v7nE",
              "name": "Sports"
            },
            "genre": {
              "id": "KnvZfZ7vAdv",
              "name": "Baseball"
            },
            "subGenre": {
              "id": "KZazBEonSMnZfZ7vF1n",
              "name": "MLB"
            },
            "type": {
              "id": "KZAyXgnZfZ7v7l1",
              "name": "Group"
            },
            "subType": {
              "id": "KZFzBErXgnZfZ7vA7d",
              "name": "Team"
            },
            "family": false
          }
        ],
        "promoter": {
          "id": "685",
          "name": "MLB REGULAR SEASON",
          "description": "MLB REGULAR SEASON / NTL / USA"
        },
        "promoters": [
          {
            "id": "685",
            "name": "MLB REGULAR SEASON",
            "description": "MLB REGULAR SEASON / NTL / USA"
          }
        ],
        "info": "Please adhere to published limits. Persons who exceed the ticket limit may have any or all of their orders and tickets cancelled without notice by Ticketmaster in its discretion. This includes orders associated with the same name, e-mail, billing address, credit card number or other information. If you purchase tickets, you may receive customer service messages via email from the New York Yankees, including optional surveys regarding your baseball experience. Ticket holder assumes all risk of injury from balls and bats entering the stands. Please note that protective netting of varying heights is used in the Stadium from Section 011 to behind home plate to Section 029. For more information, please visit yankees.com/netting. The number of innings in a regulation game shall be determined by MLB and may be shortened in accordance with MLB rules. Licensor makes no representation, warranty and/or guarantee that nine (9) innings will be played in any regulation game.",
        "pleaseNote": "The terms and conditions of your ticket and policies applicable to use are updated to address COVID-19 and health & safety. By purchasing a Yankees ticket, you accept these Terms and Conditions and policies applicable to use. Visit yankees.com/ticketback. All individual game ticket prices are subject to variable and dynamic pricing, which provide fans with more price options based on changing factors that affect market demand.",
        "seatmap": {
          "staticUrl": "https://mapsapi.tmol.io/maps/geometry/3/event/1D00611CAB4D4E64/staticImage?type=png&systemId=HOST",
          "id": "seatmap"
        },
        "accessibility": {
          "info": "Yankee Stadium management strives to provide an accessible environment for all its Guests. Wheelchair accessible and aisle-transfer (semi-ambulatory) seats are offered at various price points and locations, pending availability, throughout the Stadium and include the Yankees Premium seat locations. The Stadium also offers enhanced accessibility for Guests with hearing loss or low vision and for Guests who are deaf or blind. \r\nPlease select the location or price point as indicated in your search that best fits your needs to view available options. You may then select and purchase seats that are available through Ticketmaster. \r\nNotwithstanding, if you would like more details or if you have any questions regarding wheelchair accessible and/or aisle-transfer seating, you may contact Disabled Services at Yankee Stadium at (718) 579-4510 (voice) or (718) 579-4595 (TTY) or email disabledservices@yankees.com.",
          "ticketLimit": 19,
          "id": "accessibility"
        },
        "ticketLimit": {
          "info": "Only a LIMITED number of Tickets (as determined by the Yankees in its sole and absolute discretion) will be made available during the presale. Maximum of nine (9) Tickets to each potential game scheduled to be played during the 2025 Regular Season.",
          "id": "ticketLimit"
        },
        "ageRestrictions": {
          "legalAgeEnforced": false,
          "id": "ageRestrictions"
        },
        "ticketing": {
          "safeTix": {
            "enabled": true
          },
          "allInclusivePricing": {
            "enabled": true
          },
          "id": "ticketing"
        },
        "_links": {
          "self": {
            "href": "/discovery/v2/events/G5vVZbowlKfy0?locale=en-us"
          },
          "attractions": [
            {
              "href": "/discovery/v2/attractions/K8vZ9171okV?locale=en-us"
            },
            {
              "href": "/discovery/v2/attractions/K8vZ91718zV?locale=en-us"
            }
          ],
          "venues": [
            {
              "href": "/discovery/v2/venues/KovZpZA6t77A?locale=en-us"
            }
          ]
        },
        "_embedded": {
          "venues": [
            {
              "name": "Yankee Stadium",
              "type": "venue",
              "id": "KovZpZA6t77A",
              "test": false,
              "url": "https://www.ticketmaster.com/yankee-stadium-tickets-bronx/venue/237572",
              "locale": "en-us",
              "images": [
                {
                  "ratio": "16_9",
                  "url": "https://s1.ticketm.net/dbimages/16603v.jpg",
                  "width": 205,
                  "height": 115,
                  "fallback": false
                }
              ],
              "postalCode": "10451",
              "timezone": "America/New_York",
              "city": {
                "name": "Bronx"
              },
              "state": {
                "name": "New York",
                "stateCode": "NY"
              },
              "country": {
                "name": "United States Of America",
                "countryCode": "US"
              },
              "address": {
                "line1": "1 East 161st Street"
              },
              "location": {
                "longitude": "-73.92762640",
                "latitude": "40.82852370"
              },
              "markets": [
                {
                  "name": "New York/Tri-State Area",
                  "id": "35"
                },
                {
                  "name": "Northern New Jersey",
                  "id": "55"
                },
                {
                  "name": "Connecticut",
                  "id": "124"
                }
              ],
              "dmas": [
                {
                  "id": 296
                },
                {
                  "id": 345
                },
                {
                  "id": 422
                }
              ],
              "boxOfficeInfo": {
                "openHoursDetail": "Please check yankees.com for updated information including a Yankee Stadium Ticket Office schedule."
              },
              "parkingDetail": "PREPAID PARKING The Yankees neither control nor operate the parking lots and garages surrounding the Stadium and are not responsible for setting parking lot rates, refund policies, rules and/or procedures. Quik Park was granted those rights, including responsibility for establishing and controlling parking rates, refund policies, rules and/or procedures, by New York City.",
              "upcomingEvents": {
                "archtics": 111,
                "tmr": 2,
                "ticketmaster": 628,
                "_total": 741,
                "_filtered": 0
              },
              "ada": {
                "adaPhones": "Disabled Services at Yankee Stadium: (718) 579-4510 (voice) or (718) 579-4595 (TTY) \nEmail disabledservices@yankees.com.\n",
                "adaCustomCopy": "Yankee Stadium management strives to provide an accessible environment for all its Guests. Wheelchair accessible and aisle-transfer (semi-ambulatory) seats are offered at various price points and locations, pending availability, throughout the Stadium and include the Yankees Premium seat locations. The Stadium also offers enhanced accessibility for Guests with hearing loss or low vision and for Guests who are deaf or blind. \nPlease select the location or price point as indicated in your search that best fits your needs to view available options.  You may then select and purchase seats that are available through Ticketmaster including its website.  \nNotwithstanding, if you would like more details or if you have any questions regarding wheelchair accessible and/or aisle-transfer seating, you may contact Disabled Services at Yankee Stadium at (718) 579-4510 (voice) or (718) 579-4595 (TTY) or email disabledservices@yankees.com.\n\n",
                "adaHours": "Please check yankees.com for updated information including a Yankee Stadium Ticket Office schedule.\n"
              },
              "_links": {
                "self": {
                  "href": "/discovery/v2/venues/KovZpZA6t77A?locale=en-us"
                }
              }
            }
          ],
          "attractions": [
            {
              "name": "New York Yankees",
              "type": "attraction",
              "id": "K8vZ9171okV",
              "test": false,
              "url": "https://www.ticketmaster.com/new-york-yankees-tickets/artist/805992",
              "locale": "en-us",
              "externalLinks": {
                "twitter": [
                  {
                    "url": "https://twitter.com/Yankees"
                  }
                ],
                "facebook": [
                  {
                    "url": "https://www.facebook.com/Yankees"
                  }
                ],
                "wiki": [
                  {
                    "url": "https://en.wikipedia.org/wiki/New_York_Yankees"
                  }
                ],
                "instagram": [
                  {
                    "url": "https://www.instagram.com/yankees"
                  }
                ],
                "homepage": [
                  {
                    "url": "https://www.mlb.com/yankees"
                  }
                ]
              },
              "images": [
                {
                  "ratio": "3_2",
                  "url": "https://s1.ticketm.net/dam/a/7e0/479ac7e7-15fb-44ba-8708-fc1bf2d037e0_RETINA_PORTRAIT_3_2.jpg",
                  "width": 640,
                  "height": 427,
                  "fallback": false,
                  "attribution": "Prior image update was not to spec and stopped appearing in branded content when GADP was activated, resized and reuploaded."
                },
                {
                  "ratio": "16_9",
                  "url": "https://s1.ticketm.net/dam/a/7e0/479ac7e7-15fb-44ba-8708-fc1bf2d037e0_EVENT_DETAIL_PAGE_16_9.jpg",
                  "width": 205,
                  "height": 115,
                  "fallback": false,
                  "attribution": "Prior image update was not to spec and stopped appearing in branded content when GADP was activated, resized and reuploaded."
                },
                {
                  "ratio": "16_9",
                  "url": "https://s1.ticketm.net/dam/a/7e0/479ac7e7-15fb-44ba-8708-fc1bf2d037e0_RECOMENDATION_16_9.jpg",
                  "width": 100,
                  "height": 56,
                  "fallback": false,
                  "attribution": "Prior image update was not to spec and stopped appearing in branded content when GADP was activated, resized and reuploaded."
                },
                {
                  "ratio": "16_9",
                  "url": "https://s1.ticketm.net/dam/a/7e0/479ac7e7-15fb-44ba-8708-fc1bf2d037e0_RETINA_LANDSCAPE_16_9.jpg",
                  "width": 1136,
                  "height": 639,
                  "fallback": false,
                  "attribution": "Prior image update was not to spec and stopped appearing in branded content when GADP was activated, resized and reuploaded."
                },
                {
                  "ratio": "3_2",
                  "url": "https://s1.ticketm.net/dam/a/7e0/479ac7e7-15fb-44ba-8708-fc1bf2d037e0_ARTIST_PAGE_3_2.jpg",
                  "width": 305,
                  "height": 203,
                  "fallback": false,
                  "attribution": "Prior image update was not to spec and stopped appearing in branded content when GADP was activated, resized and reuploaded."
                },
                {
                  "ratio": "16_9",
                  "url": "https://s1.ticketm.net/dam/a/7e0/479ac7e7-15fb-44ba-8708-fc1bf2d037e0_RETINA_PORTRAIT_16_9.jpg",
                  "width": 640,
                  "height": 360,
                  "fallback": false,
                  "attribution": "Prior image update was not to spec and stopped appearing in branded content when GADP was activated, resized and reuploaded."
                },
                {
                  "ratio": "4_3",
                  "url": "https://s1.ticketm.net/dam/a/7e0/479ac7e7-15fb-44ba-8708-fc1bf2d037e0_CUSTOM.jpg",
                  "width": 305,
                  "height": 225,
                  "fallback": false,
                  "attribution": "Prior image update was not to spec and stopped appearing in branded content when GADP was activated, resized and reuploaded."
                },
                {
                  "ratio": "16_9",
                  "url": "https://s1.ticketm.net/dam/a/7e0/479ac7e7-15fb-44ba-8708-fc1bf2d037e0_TABLET_LANDSCAPE_LARGE_16_9.jpg",
                  "width": 2048,
                  "height": 1152,
                  "fallback": false,
                  "attribution": "Prior image update was not to spec and stopped appearing in branded content when GADP was activated, resized and reuploaded."
                },
                {
                  "ratio": "16_9",
                  "url": "https://s1.ticketm.net/dam/a/7e0/479ac7e7-15fb-44ba-8708-fc1bf2d037e0_SOURCE",
                  "width": 2426,
                  "height": 1365,
                  "fallback": false,
                  "attribution": "Prior image update was not to spec and stopped appearing in branded content when GADP was activated, resized and reuploaded."
                },
                {
                  "ratio": "16_9",
                  "url": "https://s1.ticketm.net/dam/a/7e0/479ac7e7-15fb-44ba-8708-fc1bf2d037e0_TABLET_LANDSCAPE_16_9.jpg",
                  "width": 1024,
                  "height": 576,
                  "fallback": false,
                  "attribution": "Prior image update was not to spec and stopped appearing in branded content when GADP was activated, resized and reuploaded."
                },
                {
                  "ratio": "3_2",
                  "url": "https://s1.ticketm.net/dam/a/7e0/479ac7e7-15fb-44ba-8708-fc1bf2d037e0_TABLET_LANDSCAPE_3_2.jpg",
                  "width": 1024,
                  "height": 683,
                  "fallback": false,
                  "attribution": "Prior image update was not to spec and stopped appearing in branded content when GADP was activated, resized and reuploaded."
                }
              ],
              "classifications": [
                {
                  "primary": true,
                  "segment": {
                    "id": "KZFzniwnSyZfZ7v7nE",
                    "name": "Sports"
                  },
                  "genre": {
                    "id": "KnvZfZ7vAdv",
                    "name": "Baseball"
                  },
                  "subGenre": {
                    "id": "KZazBEonSMnZfZ7vF1n",
                    "name": "MLB"
                  },
                  "type": {
                    "id": "KZAyXgnZfZ7v7l1",
                    "name": "Group"
                  },
                  "subType": {
                    "id": "KZFzBErXgnZfZ7vA7d",
                    "name": "Team"
                  },
                  "family": false
                }
              ],
              "upcomingEvents": {
                "tmr": 24,
                "ticketmaster": 493,
                "_total": 517,
                "_filtered": 0
              },
              "_links": {
                "self": {
                  "href": "/discovery/v2/attractions/K8vZ9171okV?locale=en-us"
                }
              }
            },
            {
              "name": "Houston Astros",
              "type": "attraction",
              "id": "K8vZ91718zV",
              "test": false,
              "url": "https://www.ticketmaster.com/houston-astros-tickets/artist/805948",
              "locale": "en-us",
              "externalLinks": {
                "twitter": [
                  {
                    "url": "https://twitter.com/astros"
                  }
                ],
                "facebook": [
                  {
                    "url": "https://www.facebook.com/Astros"
                  }
                ],
                "wiki": [
                  {
                    "url": "https://en.wikipedia.org/wiki/Houston_Astros"
                  }
                ],
                "instagram": [
                  {
                    "url": "https://www.instagram.com/astrosbaseball"
                  }
                ],
                "homepage": [
                  {
                    "url": "https://www.mlb.com/astros"
                  }
                ]
              },
              "aliases": [
                "World Series"
              ],
              "images": [
                {
                  "ratio": "3_2",
                  "url": "https://s1.ticketm.net/dam/a/810/dfa45430-f45f-4fef-bff6-926c47ee5810_RETINA_PORTRAIT_3_2.jpg",
                  "width": 640,
                  "height": 427,
                  "fallback": false
                },
                {
                  "ratio": "3_2",
                  "url": "https://s1.ticketm.net/dam/a/810/dfa45430-f45f-4fef-bff6-926c47ee5810_ARTIST_PAGE_3_2.jpg",
                  "width": 305,
                  "height": 203,
                  "fallback": false
                },
                {
                  "ratio": "16_9",
                  "url": "https://s1.ticketm.net/dam/a/810/dfa45430-f45f-4fef-bff6-926c47ee5810_EVENT_DETAIL_PAGE_16_9.jpg",
                  "width": 205,
                  "height": 115,
                  "fallback": false
                },
                {
                  "ratio": "16_9",
                  "url": "https://s1.ticketm.net/dam/a/810/dfa45430-f45f-4fef-bff6-926c47ee5810_SOURCE",
                  "width": 2426,
                  "height": 1365,
                  "fallback": false
                },
                {
                  "ratio": "16_9",
                  "url": "https://s1.ticketm.net/dam/a/810/dfa45430-f45f-4fef-bff6-926c47ee5810_RETINA_PORTRAIT_16_9.jpg",
                  "width": 640,
                  "height": 360,
                  "fallback": false
                },
                {
                  "ratio": "16_9",
                  "url": "https://s1.ticketm.net/dam/a/810/dfa45430-f45f-4fef-bff6-926c47ee5810_RETINA_LANDSCAPE_16_9.jpg",
                  "width": 1136,
                  "height": 639,
                  "fallback": false
                },
                {
                  "ratio": "16_9",
                  "url": "https://s1.ticketm.net/dam/a/810/dfa45430-f45f-4fef-bff6-926c47ee5810_TABLET_LANDSCAPE_16_9.jpg",
                  "width": 1024,
                  "height": 576,
                  "fallback": false
                },
                {
                  "ratio": "16_9",
                  "url": "https://s1.ticketm.net/dam/a/810/dfa45430-f45f-4fef-bff6-926c47ee5810_RECOMENDATION_16_9.jpg",
                  "width": 100,
                  "height": 56,
                  "fallback": false
                },
                {
                  "ratio": "4_3",
                  "url": "https://s1.ticketm.net/dam/a/810/dfa45430-f45f-4fef-bff6-926c47ee5810_CUSTOM.jpg",
                  "width": 305,
                  "height": 225,
                  "fallback": false
                },
                {
                  "ratio": "3_2",
                  "url": "https://s1.ticketm.net/dam/a/810/dfa45430-f45f-4fef-bff6-926c47ee5810_TABLET_LANDSCAPE_3_2.jpg",
                  "width": 1024,
                  "height": 683,
                  "fallback": false
                },
                {
                  "ratio": "16_9",
                  "url": "https://s1.ticketm.net/dam/a/810/dfa45430-f45f-4fef-bff6-926c47ee5810_TABLET_LANDSCAPE_LARGE_16_9.jpg",
                  "width": 2048,
                  "height": 1152,
                  "fallback": false
                }
              ],
              "classifications": [
                {
                  "primary": true,
                  "segment": {
                    "id": "KZFzniwnSyZfZ7v7nE",
                    "name": "Sports"
                  },
                  "genre": {
                    "id": "KnvZfZ7vAdv",
                    "name": "Baseball"
                  },
                  "subGenre": {
                    "id": "KZazBEonSMnZfZ7vF1n",
                    "name": "MLB"
                  },
                  "type": {
                    "id": "KZAyXgnZfZ7v7l1",
                    "name": "Group"
                  },
                  "subType": {
                    "id": "KZFzBErXgnZfZ7vA7d",
                    "name": "Team"
                  },
                  "family": false
                }
              ],
              "upcomingEvents": {
                "tmr": 52,
                "ticketmaster": 42,
                "_total": 94,
                "_filtered": 0
              },
              "_links": {
                "self": {
                  "href": "/discovery/v2/attractions/K8vZ91718zV?locale=en-us"
                }
              }
            }
          ]
        }
      }
    ]
  },
  "_links": {
    "first": {
      "href": "/discovery/v2/events.json?page=0&size=1"
    },
    "prev": {
      "href": "/discovery/v2/events.json?page=1&size=1"
    },
    "self": {
      "href": "/discovery/v2/events.json?size=1&page=2"
    },
    "next": {
      "href": "/discovery/v2/events.json?page=3&size=1"
    },
    "last": {
      "href": "/discovery/v2/events.json?page=273182&size=1"
    }
  },
  "page": {
    "size": 1,
    "totalElements": 273183,
    "totalPages": 273183,
    "number": 2
  }
}